chr1	30267280	30267281	RepAll_peak_10011	AT1G80490
chr1	2457543	2457544	RepAll_peak_1046	AT1G07920
chr1	2457543	2457544	RepAll_peak_1046	AT1G07930
chr1	2688770	2688771	RepAll_peak_1121	AT1G08490
chr1	2688770	2688771	RepAll_peak_1121	AT1G08500
chr1	3072601	3072602	RepAll_peak_1268	AT1G09520
chr1	3201704	3201705	RepAll_peak_1318	AT1G09850
chr1	3272586	3272587	RepAll_peak_1346	AT1G10020
chr1	3995307	3995308	RepAll_peak_1621	AT1G11840
chr1	364335	364336	RepAll_peak_172	AT1G02065
chr1	4229962	4229963	RepAll_peak_1730	AT1G12420
chr1	4882207	4882208	RepAll_peak_2003	AT1G14290
chr1	4882207	4882208	RepAll_peak_2003	AT1G14300
chr1	5237030	5237031	RepAll_peak_2169	AT1G15210
chr1	5421136	5421137	RepAll_peak_2252	AT1G15750
chr1	6244168	6244169	RepAll_peak_2530	AT1G18150
chr1	6463625	6463626	RepAll_peak_2633	AT1G18740
chr1	6528517	6528518	RepAll_peak_2660	AT1G18900
chr1	7038229	7038230	RepAll_peak_2855	AT1G20330
chr1	7488844	7488845	RepAll_peak_3004	AT1G21380
chr1	7488844	7488845	RepAll_peak_3004	AT1G21390
chr1	8061097	8061098	RepAll_peak_3268	AT1G22767
chr1	8061097	8061098	RepAll_peak_3268	AT1G22770
chr1	8098185	8098186	RepAll_peak_3280	AT1G22880
chr1	8098185	8098186	RepAll_peak_3280	AT1G22882
chr1	9481309	9481310	RepAll_peak_3747	AT1G27285
chr1	9481309	9481310	RepAll_peak_3747	AT1G27290
chr1	9499527	9499528	RepAll_peak_3755	AT1G27350
chr1	956655	956656	RepAll_peak_433	AT1G03790
chr1	956655	956656	RepAll_peak_433	AT1G03800
chr1	11545788	11545789	RepAll_peak_4469	AT1G32100
chr1	11612030	11612031	RepAll_peak_4497	AT1G32230
chr1	1028431	1028432	RepAll_peak_464	AT1G03990
chr1	1028431	1028432	RepAll_peak_464	AT1G04000
chr1	12138664	12138665	RepAll_peak_4677	AT1G33450
chr1	99525	99526	RepAll_peak_49	AT1G01230
chr1	99525	99526	RepAll_peak_49	AT1G01240
chr1	18307301	18307302	RepAll_peak_5603	AT1G49450
chr1	18886399	18886400	RepAll_peak_5775	AT1G50954
chr1	18902433	18902434	RepAll_peak_5776	AT1G50980
chr1	18902433	18902434	RepAll_peak_5776	AT1G50990
chr1	18908952	18908953	RepAll_peak_5777	AT1G51000
chr1	18912249	18912250	RepAll_peak_5778	AT1G51010
chr1	18912249	18912250	RepAll_peak_5778	AT1G51020
chr1	18927712	18927713	RepAll_peak_5779	AT1G51060
chr1	18927712	18927713	RepAll_peak_5779	AT1G51070
chr1	18946262	18946263	RepAll_peak_5780	AT1G51140
chr1	19600576	19600577	RepAll_peak_5965	AT1G52615
chr1	19699396	19699397	RepAll_peak_6005	AT1G52890
chr1	20588192	20588193	RepAll_peak_6338	AT1G55180
chr1	20588192	20588193	RepAll_peak_6338	AT1G55190
chr1	20588192	20588193	RepAll_peak_6338	AT1G55200
chr1	21007955	21007956	RepAll_peak_6478	AT1G56140
chr1	21007955	21007956	RepAll_peak_6478	AT1G56145
chr1	1469327	1469328	RepAll_peak_650	AT1G05100
chr1	21256120	21256121	RepAll_peak_6563	AT1G56690
chr1	21256120	21256121	RepAll_peak_6563	AT1G56700
chr1	21364744	21364745	RepAll_peak_6585	AT1G57680
chr1	21519030	21519031	RepAll_peak_6625	AT1G58110
chr1	22200311	22200312	RepAll_peak_6797	AT1G60190
chr1	22200311	22200312	RepAll_peak_6797	AT1G60200
chr1	23899067	23899068	RepAll_peak_7401	AT1G64385
chr1	25781289	25781290	RepAll_peak_8069	AT1G68670
chr1	25941606	25941607	RepAll_peak_8119	AT1G68990
chr1	25941606	25941607	RepAll_peak_8119	AT1G69000
chr1	25941606	25941607	RepAll_peak_8119	AT1G69010
chr1	1953946	1953947	RepAll_peak_834	AT1G06410
chr1	26587696	26587697	RepAll_peak_8414	AT1G70520
chr1	2025346	2025347	RepAll_peak_855	AT1G06590
chr1	2025346	2025347	RepAll_peak_855	AT1G06610
chr1	2025346	2025347	RepAll_peak_855	AT1G06620
chr1	27647112	27647113	RepAll_peak_8874	AT1G73540
chr1	27647112	27647113	RepAll_peak_8874	AT1G73550
chr1	28117556	28117557	RepAll_peak_9066	AT1G74840
chr1	29203519	29203520	RepAll_peak_9542	AT1G77690
chr2	8163989	8163990	RepAll_peak_11622	AT2G18850
chr2	8163989	8163990	RepAll_peak_11622	AT2G18860
chr2	10367018	10367019	RepAll_peak_12423	AT2G24360
chr2	10373575	10373576	RepAll_peak_12424	AT2G24370
chr2	10373575	10373576	RepAll_peak_12424	AT2G24380
chr2	10373575	10373576	RepAll_peak_12424	AT2G24390
chr2	10427620	10427621	RepAll_peak_12439	AT2G24540
chr2	10427620	10427621	RepAll_peak_12439	AT2G24545
chr2	10427620	10427621	RepAll_peak_12439	AT2G24550
chr2	13266659	13266660	RepAll_peak_13434	AT2G31130
chr2	13971775	13971776	RepAll_peak_13684	AT2G32940
chr2	14065813	14065814	RepAll_peak_13721	AT2G33180
chr2	14999123	14999124	RepAll_peak_14056	AT2G35680
chr2	14999123	14999124	RepAll_peak_14056	AT2G35690
chr2	16485745	16485746	RepAll_peak_14694	AT2G39480
chr2	17099363	17099364	RepAll_peak_14929	AT2G40970
chr2	17269202	17269203	RepAll_peak_15023	AT2G41430
chr2	17473216	17473217	RepAll_peak_15087	AT2G41870
chr2	17796097	17796098	RepAll_peak_15206	AT2G42750
chr2	17796097	17796098	RepAll_peak_15206	AT2G42760
chr2	18786511	18786512	RepAll_peak_15660	AT2G45590
chr2	18867151	18867152	RepAll_peak_15700	AT2G45830
chr2	18938151	18938152	RepAll_peak_15729	AT2G46040
chr2	18950079	18950080	RepAll_peak_15731	AT2G46080
chr2	18950079	18950080	RepAll_peak_15731	AT2G46090
chr2	18965167	18965168	RepAll_peak_15738	AT2G46170
chr2	18998813	18998814	RepAll_peak_15755	AT2G46260
chr2	19027713	19027714	RepAll_peak_15772	AT2G46340
chr2	19027713	19027714	RepAll_peak_15772	AT2G46360
chr2	19245404	19245405	RepAll_peak_15875	AT2G46820
chr2	19245404	19245405	RepAll_peak_15875	AT2G46830
chr2	19344461	19344462	RepAll_peak_15908	AT2G47090
chr2	19344461	19344462	RepAll_peak_15908	AT2G47100
chr2	19344461	19344462	RepAll_peak_15908	AT2G47110
chr2	19344461	19344462	RepAll_peak_15908	AT2G47115
chr2	19641109	19641110	RepAll_peak_16040	AT2G48000
chr2	19641109	19641110	RepAll_peak_16040	AT2G48010
chr3	538445	538446	RepAll_peak_16269	AT3G02550
chr3	1567476	1567477	RepAll_peak_16677	AT3G05420
chr3	1567476	1567477	RepAll_peak_16677	AT3G05425
chr3	1567476	1567477	RepAll_peak_16677	AT3G05430
chr3	1739119	1739120	RepAll_peak_16732	AT3G05830
chr3	1739119	1739120	RepAll_peak_16732	AT3G05835
chr3	1739119	1739120	RepAll_peak_16732	AT3G05840
chr3	2113609	2113610	RepAll_peak_16885	AT3G06670
chr3	2113609	2113610	RepAll_peak_16885	AT3G06680
chr3	2348787	2348788	RepAll_peak_16974	AT3G07350
chr3	3090648	3090649	RepAll_peak_17251	AT3G10015
chr3	3090648	3090649	RepAll_peak_17251	AT3G10020
chr3	3271414	3271415	RepAll_peak_17313	AT3G10490
chr3	3271414	3271415	RepAll_peak_17313	AT3G10500
chr3	3698704	3698705	RepAll_peak_17491	AT3G11700
chr3	3826100	3826101	RepAll_peak_17538	AT3G12010
chr3	3826100	3826101	RepAll_peak_17538	AT3G12012
chr3	3826100	3826101	RepAll_peak_17538	AT3G12020
chr3	3919223	3919224	RepAll_peak_17574	AT3G12280
chr3	3919223	3919224	RepAll_peak_17574	AT3G12290
chr3	3923545	3923546	RepAll_peak_17576	AT3G12300
chr3	3923545	3923546	RepAll_peak_17576	AT3G12320
chr3	3942076	3942077	RepAll_peak_17585	AT3G12380
chr3	3942076	3942077	RepAll_peak_17585	AT3G12385
chr3	3942076	3942077	RepAll_peak_17585	AT3G12390
chr3	4660887	4660888	RepAll_peak_17891	AT3G14067
chr3	4660887	4660888	RepAll_peak_17891	AT3G14070
chr3	5252822	5252823	RepAll_peak_18161	AT3G15520
chr3	5252822	5252823	RepAll_peak_18161	AT3G15530
chr3	5731035	5731036	RepAll_peak_18354	AT3G16830
chr3	6484053	6484054	RepAll_peak_18639	AT3G18810
chr3	6484053	6484054	RepAll_peak_18639	AT3G18815
chr3	6484053	6484054	RepAll_peak_18639	AT3G18820
chr3	6565319	6565320	RepAll_peak_18670	AT3G19030
chr3	6565319	6565320	RepAll_peak_18670	AT3G19035
chr3	8213954	8213955	RepAll_peak_19220	AT3G23090
chr3	9823510	9823511	RepAll_peak_19764	AT3G26720
chr3	9823510	9823511	RepAll_peak_19764	AT3G26730
chr3	10759374	10759375	RepAll_peak_20080	AT3G28695
chr3	10759374	10759375	RepAll_peak_20080	AT3G28700
chr3	17182778	17182779	RepAll_peak_20902	AT3G46630
chr3	17182778	17182779	RepAll_peak_20902	AT3G46640
chr3	17362366	17362367	RepAll_peak_20948	AT3G47160
chr3	17362366	17362367	RepAll_peak_20948	AT3G47165
chr3	17523391	17523392	RepAll_peak_21007	AT3G47540
chr3	17523391	17523392	RepAll_peak_21007	AT3G47543
chr3	17523391	17523392	RepAll_peak_21007	AT3G47550
chr3	17739824	17739825	RepAll_peak_21080	AT3G48050
chr3	18883244	18883245	RepAll_peak_21532	AT3G50800
chr3	20872420	20872421	RepAll_peak_22294	AT3G56270
chr3	20872420	20872421	RepAll_peak_22294	AT3G56275
chr3	22328153	22328154	RepAll_peak_22840	AT3G60400
chr3	22457984	22457985	RepAll_peak_22895	AT3G60750
chr3	22457984	22457985	RepAll_peak_22895	AT3G60760
chr3	22881792	22881793	RepAll_peak_23041	AT3G61820
chr3	22881792	22881793	RepAll_peak_23041	AT3G61825
chr3	22991187	22991188	RepAll_peak_23094	AT3G62090
chr3	23089375	23089376	RepAll_peak_23134	AT3G62390
chr3	23089375	23089376	RepAll_peak_23134	AT3G62400
chr3	23276534	23276535	RepAll_peak_23224	AT3G62980
chr3	23328872	23328873	RepAll_peak_23253	AT3G63140
chr3	23328872	23328873	RepAll_peak_23253	AT3G63150
chr3	23345287	23345288	RepAll_peak_23262	AT3G63190
chr3	23345287	23345288	RepAll_peak_23262	AT3G63200
chr3	23450300	23450301	RepAll_peak_23314	AT3G63500
chr3	23450300	23450301	RepAll_peak_23314	AT3G63510
chr4	85004	85005	RepAll_peak_23344	AT4G00200
chr4	85004	85005	RepAll_peak_23344	AT4G00210
chr4	161793	161794	RepAll_peak_23374	AT4G00360
chr4	297461	297462	RepAll_peak_23409	AT4G00720
chr4	526664	526665	RepAll_peak_23503	AT4G01245
chr4	744158	744159	RepAll_peak_23594	AT4G01720
chr4	1382717	1382718	RepAll_peak_23815	AT4G03113
chr4	1382717	1382718	RepAll_peak_23815	AT4G03115
chr4	6435245	6435246	RepAll_peak_24403	AT4G10380
chr4	6649715	6649716	RepAll_peak_24462	AT4G10820
chr4	8203361	8203362	RepAll_peak_24956	AT4G14230
chr4	8203361	8203362	RepAll_peak_24956	AT4G14240
chr4	8334015	8334016	RepAll_peak_25003	AT4G14490
chr4	8334015	8334016	RepAll_peak_25003	AT4G14500
chr4	8705504	8705505	RepAll_peak_25130	AT4G15240
chr4	8705504	8705505	RepAll_peak_25130	AT4G15242
chr4	9253909	9253910	RepAll_peak_25298	AT4G16380
chr4	12255841	12255842	RepAll_peak_26332	AT4G23493
chr4	12571727	12571728	RepAll_peak_26474	AT4G24240
chr4	13021160	13021161	RepAll_peak_26618	AT4G25490
chr4	15120684	15120685	RepAll_peak_27455	AT4G31070
chr4	15120684	15120685	RepAll_peak_27455	AT4G31075
chr4	15120684	15120685	RepAll_peak_27455	AT4G31080
chr4	16606187	16606188	RepAll_peak_28056	AT4G34830
chr4	16606187	16606188	RepAll_peak_28056	AT4G34840
chr4	17119696	17119697	RepAll_peak_28295	AT4G36170
chr4	17119696	17119697	RepAll_peak_28295	AT4G36180
chr4	17986381	17986382	RepAll_peak_28742	AT4G38430
chr4	18055683	18055684	RepAll_peak_28769	AT4G38620
chr4	18275095	18275096	RepAll_peak_28868	AT4G39260
chr5	308924	308925	RepAll_peak_29163	AT5G01800
chr5	308924	308925	RepAll_peak_29163	AT5G01810
chr5	332168	332169	RepAll_peak_29179	AT5G01849
chr5	332168	332169	RepAll_peak_29179	AT5G01850
chr5	442350	442351	RepAll_peak_29225	AT5G02220
chr5	1308465	1308466	RepAll_peak_29600	AT5G04560
chr5	1608493	1608494	RepAll_peak_29716	AT5G05435
chr5	1608493	1608494	RepAll_peak_29716	AT5G05440
chr5	2985542	2985543	RepAll_peak_30226	AT5G09620
chr5	2985542	2985543	RepAll_peak_30226	AT5G09630
chr5	3051939	3051940	RepAll_peak_30249	AT5G09810
chr5	3336205	3336206	RepAll_peak_30362	AT5G10550
chr5	3336205	3336206	RepAll_peak_30362	AT5G10560
chr5	4441779	4441780	RepAll_peak_30787	AT5G13750
chr5	4441779	4441780	RepAll_peak_30787	AT5G13760
chr5	4722505	4722506	RepAll_peak_30912	AT5G14640
chr5	4898669	4898670	RepAll_peak_30961	AT5G15110
chr5	4898669	4898670	RepAll_peak_30961	AT5G15120
chr5	5011938	5011939	RepAll_peak_31020	AT5G15430
chr5	5011938	5011939	RepAll_peak_31020	AT5G15440
chr5	6274868	6274869	RepAll_peak_31486	AT5G18820
chr5	6684699	6684700	RepAll_peak_31627	AT5G19770
chr5	7513046	7513047	RepAll_peak_31924	AT5G22608
chr5	8747339	8747340	RepAll_peak_32379	AT5G25240
chr5	16135260	16135261	RepAll_peak_33560	AT5G40340
chr5	16410692	16410693	RepAll_peak_33669	AT5G40945
chr5	16410692	16410693	RepAll_peak_33669	AT5G40950
chr5	17224155	17224156	RepAll_peak_33979	AT5G42950
chr5	17829212	17829213	RepAll_peak_34209	AT5G44255
chr5	17829212	17829213	RepAll_peak_34209	AT5G44260
chr5	17839601	17839602	RepAll_peak_34212	AT5G44280
chr5	17839601	17839602	RepAll_peak_34212	AT5G44283
chr5	17839601	17839602	RepAll_peak_34212	AT5G44286
chr5	17839601	17839602	RepAll_peak_34212	AT5G44290
chr5	17843760	17843761	RepAll_peak_34214	AT5G44290
chr5	18558851	18558852	RepAll_peak_34421	AT5G45740
chr5	18558851	18558852	RepAll_peak_34421	AT5G45745
chr5	18558851	18558852	RepAll_peak_34421	AT5G45750
chr5	19308996	19308997	RepAll_peak_34690	AT5G47640
chr5	19563902	19563903	RepAll_peak_34785	AT5G48250
chr5	19563902	19563903	RepAll_peak_34785	AT5G48270
chr5	20706876	20706877	RepAll_peak_35110	AT5G50900
chr5	21095039	21095040	RepAll_peak_35259	AT5G51900
chr5	21095039	21095040	RepAll_peak_35259	AT5G51910
chr5	22312989	22312990	RepAll_peak_35717	AT5G54960
chr5	22312989	22312990	RepAll_peak_35717	AT5G54970
chr5	22331872	22331873	RepAll_peak_35728	AT5G55040
chr5	22603292	22603293	RepAll_peak_35833	AT5G55840
chr5	22603292	22603293	RepAll_peak_35833	AT5G55850
chr5	23451058	23451059	RepAll_peak_36211	AT5G57900
chr5	23451058	23451059	RepAll_peak_36211	AT5G57910
chr5	23894316	23894317	RepAll_peak_36371	AT5G59210
chr5	23894316	23894317	RepAll_peak_36371	AT5G59220
chr5	23901219	23901220	RepAll_peak_36374	AT5G59230
chr5	23966334	23966335	RepAll_peak_36400	AT5G59430
chr5	24066238	24066239	RepAll_peak_36445	AT5G59730
chr5	24066238	24066239	RepAll_peak_36445	AT5G59732
chr5	24264472	24264473	RepAll_peak_36520	AT5G60290
chr5	24264472	24264473	RepAll_peak_36520	AT5G60300
chr5	24908340	24908341	RepAll_peak_36774	AT5G61997
chr5	25609332	25609333	RepAll_peak_37077	AT5G63970
chr5	25609332	25609333	RepAll_peak_37077	AT5G63980
chr5	26394624	26394625	RepAll_peak_37447	AT5G65980
chr5	26394624	26394625	RepAll_peak_37447	AT5G65990
chr5	26710084	26710085	RepAll_peak_37611	AT5G66880
chr5	26822262	26822263	RepAll_peak_37668	AT5G67220
chr5	26822262	26822263	RepAll_peak_37668	AT5G67230
